﻿{
  "$id": "https://www.austinpowder.com/specs/schemas/blast-hole/v1.0",
  "$schema": "http://json-schema.org/draft-07/schema#",
  "title": "Blast Hole",
  "type": "object",
  "properties": {
    "id": {
      "type": "string"
    },
    "displayName": {
      "type": "string"
    },
    "holeNumber": {
      "type": "integer"
    },
    "depth": {
      "type": "number",
      "description": "Measured in m. NOTE: hole depth is implicitly described by the depthSamples array if present."
    },
    "subdrill": {
      "type": "number",
      "description": "Measured in m"
    },
    "diameter": {
      "type": "number",
      "description": "Measured in mm"
    },
    "drillingAngle": {
      "type": "number",
      "description": "Measured in degrees"
    },
    "drillingBearing": {
      "type": "number",
      "description": "Applicable to angled holes only. Measured in degrees. North is 0°, East is 90°, South is 180°, West is 270°."
    },
    "depthSamples": {
      "type":"array",
      "description": "This optional property will contain an array of offset sample data to describe the borehole deviation if available.",
      "items": {
        "type": "object",
        "properties": {
          "eastingOffset": {
            "type": "number",
            "description": "The offset in the easting direction as measured from the collar. Measured in m."
          },
          "northingOffset": {
            "type": "number",
            "description": "The offset in the northing direction as measured from the collar. Measured in m."
          },
          "depth": {
            "type": "number",
            "description": "The depth of the above northing/easting offset values."
          }
        }
      },
      "required": ["eastingOffset", "northingOffset", "depth"]
    },
    "centerLeftOffset": {
      "type": "number",
      "description": "Left offset of the center of the hole relative to the canvas. Measured in m."
    },
    "centerTopOffset": {
      "type": "number",
      "description": "Top offset of the center of the hole relative to the canvas. Measured in m."
    },
    "patternId": {
      "type": "string"
    },
    "holeLoadId": {
      "type": "string"
    },
    "location": { "$ref": "https://www.austinpowder.com/specs/schemas/geographical-location/v1.0" }
  },
  "required": [ "id" ]
}